<?xml version="1.0" encoding="UTF-8"?>
<svg width="27px" height="20px" viewBox="0 0 27 20" version="1.1" xmlns="http://www.w3.org/2000/svg" xmlns:xlink="http://www.w3.org/1999/xlink">
    <!-- Generator: Sketch 49.3 (51167) - http://www.bohemiancoding.com/sketch -->
    <title>Group 19</title>
    <desc>Created with Sketch.</desc>
    <defs>
        <rect id="path-1" x="0" y="0" width="26.693692" height="19.7292624" rx="3"></rect>
    </defs>
    <g id="Symbols" stroke="none" stroke-width="1" fill="none" fill-rule="evenodd">
        <g id="MESSAGERIE" transform="translate(-192.000000, -16.000000)">
            <g id="Group-15" transform="translate(0.000000, -1.000000)">
                <g id="Line-+-Line-+-Path-2-Mask" transform="translate(177.000000, 17.000000)">
                    <g id="Group-19" transform="translate(15.000000, 0.000000)">
                        <mask id="mask-2" fill="white">
                            <use xlink:href="#path-1"></use>
                        </mask>
                        <use id="Mask" fill="#30A75D" xlink:href="#path-1"></use>
                        <polyline id="Path-2" stroke="#FFFFFF" stroke-width="1.2" opacity="0.6" stroke-linejoin="round" mask="url(#mask-2)" points="0 0 9.97305404 10.1256694 0 20 9.97305404 10.1256694 13.4980294 13.7247802 17.0109806 10.2186676 26.4672314 19.4205455 17.0109806 10.2186676 26.2996605 0.578732202"></polyline>
                    </g>
                </g>
            </g>
        </g>
    </g>
</svg>