<!-- Generated by IcoMoon.io -->
<svg version="1.1" xmlns="http://www.w3.org/2000/svg" width="32" height="32" viewBox="0 0 32 32">
<title>calendar-gray</title>
<path fill="#4a4a4a" d="M1.333 10.667v20h29.333v-20h-29.333zM32 9.333v22.667h-32v-22.667h32z"></path>
<path fill="#4a4a4a" d="M1.333 5.333v4h29.333v-4h-29.333zM32 4v6.667h-32v-6.667h32z"></path>
<path fill="#4a4a4a" d="M9.333 0.333h2.667v8.667h-2.667v-8.667zM21.333 0.333h2.667v8.667h-2.667v-8.667zM6.946 20v-2.667h19.441v2.667h-19.441zM6.958 25.333v-2.667h11.417v2.667h-11.417z"></path>
</svg>
