<!-- Generated by IcoMoon.io -->
<svg version="1.1" xmlns="http://www.w3.org/2000/svg" width="32" height="32" viewBox="0 0 32 32">
<title>clock-light</title>
<path fill="#979797" d="M16.34 16.019c0 0.21-0.171 0.381-0.381 0.381s-0.381-0.171-0.381-0.381v-10.994c0-0.21 0.171-0.381 0.381-0.381s0.381 0.171 0.381 0.381v10.994zM15.97 16.419c-0.21 0-0.381-0.171-0.381-0.381s0.171-0.381 0.381-0.381h8.019c0.21 0 0.381 0.171 0.381 0.381s-0.171 0.381-0.381 0.381h-8.019z"></path>
<path fill="#979797" d="M16.544 31.945c-8.506 0-15.401-6.895-15.401-15.401s6.895-15.401 15.401-15.401c8.506 0 15.401 6.895 15.401 15.401s-6.895 15.401-15.401 15.401zM16.544 31.183c8.085 0 14.639-6.554 14.639-14.639s-6.554-14.639-14.639-14.639c-8.085 0-14.639 6.554-14.639 14.639s6.554 14.639 14.639 14.639z"></path>
</svg>
