<!-- Generated by IcoMoon.io -->
<svg version="1.1" xmlns="http://www.w3.org/2000/svg" width="32" height="32" viewBox="0 0 32 32">
<title>knob</title>
<path fill="#000" d="M30.634 16c0 8.068-6.687 14.609-14.936 14.609s-14.936-6.541-14.936-14.609c0-8.068 6.687-14.609 14.936-14.609s14.936 6.541 14.936 14.609z"></path>
<path fill="#fff" d="M30.634 16c0 8.068-6.687 14.609-14.936 14.609s-14.936-6.541-14.936-14.609c0-8.068 6.687-14.609 14.936-14.609s14.936 6.541 14.936 14.609z"></path>
<path fill="#000" opacity="0.10000000149011612" d="M15.698 31.304c-8.631 0-15.631-6.85-15.631-15.304s7-15.304 15.631-15.304c8.631 0 15.631 6.85 15.631 15.304s-7 15.304-15.631 15.304zM15.698 30.609c8.25 0 14.936-6.542 14.936-14.609s-6.685-14.609-14.936-14.609c-8.25 0-14.936 6.542-14.936 14.609s6.685 14.609 14.936 14.609z"></path>
</svg>
