<!-- Generated by IcoMoon.io -->
<svg version="1.1" xmlns="http://www.w3.org/2000/svg" width="44" height="32" viewBox="0 0 44 32">
<title>news-light</title>
<path fill="#979797" d="M17.662 18.286c-0.421 0-0.762-0.341-0.762-0.762s0.341-0.762 0.762-0.762h18.009c0.421 0 0.762 0.341 0.762 0.762s-0.341 0.762-0.762 0.762h-18.009zM17.662 22.857c-0.421 0-0.762-0.341-0.762-0.762s0.341-0.762 0.762-0.762h18.009c0.421 0 0.762 0.341 0.762 0.762s-0.341 0.762-0.762 0.762h-18.009zM17.741 27.302c-0.421 0-0.762-0.341-0.762-0.762s0.341-0.762 0.762-0.762h11.755c0.421 0 0.762 0.341 0.762 0.762s-0.341 0.762-0.762 0.762h-11.755z"></path>
<path fill="#d8d8d8" d="M4.571 1.524h35.048c1.683 0 3.048 1.364 3.048 3.048v9.143h-41.143v-9.143c0-1.683 1.364-3.048 3.048-3.048z"></path>
<path fill="#979797" d="M6.095 18.286v6.095h6.095v-6.095h-6.095zM6.095 16.762h6.095c0.842 0 1.524 0.682 1.524 1.524v6.095c0 0.842-0.682 1.524-1.524 1.524h-6.095c-0.842 0-1.524-0.682-1.524-1.524v-6.095c0-0.842 0.682-1.524 1.524-1.524z"></path>
<path fill="#979797" d="M4.571 2.286c-1.262 0-2.286 1.023-2.286 2.286v22.857c0 1.262 1.023 2.286 2.286 2.286h35.048c1.262 0 2.286-1.023 2.286-2.286v-22.857c0-1.262-1.023-2.286-2.286-2.286h-35.048zM4.571 0.762h35.048c2.104 0 3.81 1.706 3.81 3.81v22.857c0 2.104-1.706 3.81-3.81 3.81h-35.048c-2.104 0-3.81-1.706-3.81-3.81v-22.857c0-2.104 1.706-3.81 3.81-3.81z"></path>
<path fill="#979797" d="M9.143 9.143c-0.842 0-1.524-0.682-1.524-1.524s0.682-1.524 1.524-1.524h24.381c0.842 0 1.524 0.682 1.524 1.524s-0.682 1.524-1.524 1.524h-24.381z"></path>
</svg>
