<!-- Generated by IcoMoon.io -->
<svg version="1.1" xmlns="http://www.w3.org/2000/svg" width="32" height="32" viewBox="0 0 32 32">
<title>x-sign-red</title>
<path fill="#e94157" d="M31.030 15.515c0 8.569-6.946 15.515-15.515 15.515s-15.515-6.946-15.515-15.515c0-8.569 6.946-15.515 15.515-15.515s15.515 6.946 15.515 15.515z"></path>
<path fill="#fff" d="M15.762 16.99l4.783 4.616 1.488-1.413-4.8-4.602 4.797-4.561-1.488-1.43-4.78 4.582-4.779-4.582-1.384 1.444 4.703 4.538-4.703 4.508 1.378 1.449z"></path>
</svg>
